%YAML 1.1
%TAG !u! tag:unity3d.com,2011:
--- !u!114 &1000203035605275404
MonoBehaviour:
  m_ObjectHideFlags: 0
  m_CorrespondingSourceObject: {fileID: 0}
  m_PrefabInstance: {fileID: 0}
  m_PrefabAsset: {fileID: 0}
  m_GameObject: {fileID: 1408389697945064070}
  m_Enabled: 1
  m_EditorHideFlags: 0
  m_Script: {fileID: 11500000, guid: 9e8338de5f3563e43912d807c73cec47, type: 3}
  m_Name: 
  m_EditorClassIdentifier: 
  Creature: {fileID: 1408389697945064065}
--- !u!1001 &4418155991460858569
PrefabInstance:
  m_ObjectHideFlags: 0
  serializedVersion: 2
  m_Modification:
    m_TransformParent: {fileID: 0}
    m_Modifications:
    - target: {fileID: 3376551283352410184, guid: c7ee73df7a1cdbd45a4a88882f9033f0, type: 3}
      propertyPath: EnablePath
      value: 0
      objectReference: {fileID: 0}
    - target: {fileID: 3376551283352410184, guid: c7ee73df7a1cdbd45a4a88882f9033f0, type: 3}
      propertyPath: NumOfWalkers
      value: 25
      objectReference: {fileID: 0}
    - target: {fileID: 3376551283352410184, guid: c7ee73df7a1cdbd45a4a88882f9033f0, type: 3}
      propertyPath: SensorRadius
      value: 0.5
      objectReference: {fileID: 0}
    - target: {fileID: 3376551283352410184, guid: c7ee73df7a1cdbd45a4a88882f9033f0, type: 3}
      propertyPath: WalkerOffset
      value: 0.5
      objectReference: {fileID: 0}
    - target: {fileID: 3376551283352410184, guid: c7ee73df7a1cdbd45a4a88882f9033f0, type: 3}
      propertyPath: EnableMovement
      value: 1
      objectReference: {fileID: 0}
    - target: {fileID: 3376551283352410184, guid: c7ee73df7a1cdbd45a4a88882f9033f0, type: 3}
      propertyPath: SensorDistance
      value: 0.5
      objectReference: {fileID: 0}
    - target: {fileID: 3376551283352410185, guid: c7ee73df7a1cdbd45a4a88882f9033f0, type: 3}
      propertyPath: m_RootOrder
      value: 0
      objectReference: {fileID: 0}
    - target: {fileID: 3376551283352410185, guid: c7ee73df7a1cdbd45a4a88882f9033f0, type: 3}
      propertyPath: m_LocalPosition.x
      value: 0
      objectReference: {fileID: 0}
    - target: {fileID: 3376551283352410185, guid: c7ee73df7a1cdbd45a4a88882f9033f0, type: 3}
      propertyPath: m_LocalPosition.y
      value: 1.5
      objectReference: {fileID: 0}
    - target: {fileID: 3376551283352410185, guid: c7ee73df7a1cdbd45a4a88882f9033f0, type: 3}
      propertyPath: m_LocalPosition.z
      value: 0
      objectReference: {fileID: 0}
    - target: {fileID: 3376551283352410185, guid: c7ee73df7a1cdbd45a4a88882f9033f0, type: 3}
      propertyPath: m_LocalRotation.w
      value: 1
      objectReference: {fileID: 0}
    - target: {fileID: 3376551283352410185, guid: c7ee73df7a1cdbd45a4a88882f9033f0, type: 3}
      propertyPath: m_LocalRotation.x
      value: 0
      objectReference: {fileID: 0}
    - target: {fileID: 3376551283352410185, guid: c7ee73df7a1cdbd45a4a88882f9033f0, type: 3}
      propertyPath: m_LocalRotation.y
      value: 0
      objectReference: {fileID: 0}
    - target: {fileID: 3376551283352410185, guid: c7ee73df7a1cdbd45a4a88882f9033f0, type: 3}
      propertyPath: m_LocalRotation.z
      value: 0
      objectReference: {fileID: 0}
    - target: {fileID: 3376551283352410185, guid: c7ee73df7a1cdbd45a4a88882f9033f0, type: 3}
      propertyPath: m_LocalEulerAnglesHint.x
      value: 0
      objectReference: {fileID: 0}
    - target: {fileID: 3376551283352410185, guid: c7ee73df7a1cdbd45a4a88882f9033f0, type: 3}
      propertyPath: m_LocalEulerAnglesHint.y
      value: 0
      objectReference: {fileID: 0}
    - target: {fileID: 3376551283352410185, guid: c7ee73df7a1cdbd45a4a88882f9033f0, type: 3}
      propertyPath: m_LocalEulerAnglesHint.z
      value: 0
      objectReference: {fileID: 0}
    - target: {fileID: 3376551283352410191, guid: c7ee73df7a1cdbd45a4a88882f9033f0, type: 3}
      propertyPath: m_Name
      value: EnemyCrawler
      objectReference: {fileID: 0}
    - target: {fileID: 3376551283352410191, guid: c7ee73df7a1cdbd45a4a88882f9033f0, type: 3}
      propertyPath: m_IsActive
      value: 1
      objectReference: {fileID: 0}
    m_RemovedComponents: []
  m_SourcePrefab: {fileID: 100100000, guid: c7ee73df7a1cdbd45a4a88882f9033f0, type: 3}
--- !u!1 &1408389697945064070 stripped
GameObject:
  m_CorrespondingSourceObject: {fileID: 3376551283352410191, guid: c7ee73df7a1cdbd45a4a88882f9033f0, type: 3}
  m_PrefabInstance: {fileID: 4418155991460858569}
  m_PrefabAsset: {fileID: 0}
--- !u!114 &1408389697945064065 stripped
MonoBehaviour:
  m_CorrespondingSourceObject: {fileID: 3376551283352410184, guid: c7ee73df7a1cdbd45a4a88882f9033f0, type: 3}
  m_PrefabInstance: {fileID: 4418155991460858569}
  m_PrefabAsset: {fileID: 0}
  m_GameObject: {fileID: 1408389697945064070}
  m_Enabled: 1
  m_EditorHideFlags: 0
  m_Script: {fileID: 11500000, guid: 56e90eefc3230264eb9636c31890e762, type: 3}
  m_Name: 
  m_EditorClassIdentifier: 
